<?xml version="1.0" encoding="utf-8"?>
<!-- Generator: Adobe Illustrator 25.4.1, SVG Export Plug-In . SVG Version: 6.00 Build 0)  -->
<svg version="1.1" id="Layer_1" xmlns="http://www.w3.org/2000/svg" xmlns:xlink="http://www.w3.org/1999/xlink" x="0px" y="0px"
	 viewBox="0 0 128 128" style="enable-background:new 0 0 128 128;" xml:space="preserve">
<style type="text/css">
	.st0{fill:#1010EB;}
	.st1{fill:#FFFFFF;}
</style>
<g transform="translate(-880 -6713)">
	<g transform="matrix(1, 0, 0, 1, 880, 6713)">
		<circle class="st0" cx="64" cy="64" r="64"/>
	</g>
	<path class="st1" d="M929,6805l0.2-56.5l47.6,26.4L929,6805z"/>
</g>
</svg>
