<svg id="Layer_2" data-name="Layer 2" xmlns="http://www.w3.org/2000/svg" xmlns:xlink="http://www.w3.org/1999/xlink" width="179.061" height="53.058" viewBox="0 0 179.061 53.058">
  <defs>
    <linearGradient id="linear-gradient" x1="0.915" y1="4.529" x2="-0.383" y2="3.86" gradientUnits="objectBoundingBox">
      <stop offset="0" stop-color="#00a0ff"/>
      <stop offset="0.01" stop-color="#00a1ff"/>
      <stop offset="0.26" stop-color="#00beff"/>
      <stop offset="0.51" stop-color="#00d2ff"/>
      <stop offset="0.76" stop-color="#00dfff"/>
      <stop offset="1" stop-color="#00e3ff"/>
    </linearGradient>
    <linearGradient id="linear-gradient-2" x1="1.076" y1="11.002" x2="-1.304" y2="11.002" gradientUnits="objectBoundingBox">
      <stop offset="0" stop-color="#ffe000"/>
      <stop offset="0.41" stop-color="#ffbd00"/>
      <stop offset="0.78" stop-color="orange"/>
      <stop offset="1" stop-color="#ff9c00"/>
    </linearGradient>
    <linearGradient id="linear-gradient-3" x1="0.862" y1="6.806" x2="-0.501" y2="5.037" gradientUnits="objectBoundingBox">
      <stop offset="0" stop-color="#ff3a44"/>
      <stop offset="1" stop-color="#c31162"/>
    </linearGradient>
    <linearGradient id="linear-gradient-4" x1="-0.188" y1="9.526" x2="0.421" y2="8.735" gradientUnits="objectBoundingBox">
      <stop offset="0" stop-color="#32a071"/>
      <stop offset="0.07" stop-color="#2da771"/>
      <stop offset="0.48" stop-color="#15cf74"/>
      <stop offset="0.8" stop-color="#06e775"/>
      <stop offset="1" stop-color="#00f076"/>
    </linearGradient>
  </defs>
  <rect id="Rectangle_7589" data-name="Rectangle 7589" width="179.061" height="53.058" rx="7.9"/>
  <path id="Path_1830" data-name="Path 1830" d="M172.424,1.057A5.58,5.58,0,0,1,178,6.629V46.42a5.58,5.58,0,0,1-5.572,5.605H6.629a5.58,5.58,0,0,1-5.572-5.572V6.629A5.58,5.58,0,0,1,6.629,1.057H172.424m0-1.057H6.629A6.654,6.654,0,0,0,0,6.629V46.42a6.654,6.654,0,0,0,6.629,6.629H172.424a6.654,6.654,0,0,0,6.629-6.629V6.629A6.654,6.654,0,0,0,172.424,0Z" fill="#a6a6a6"/>
  <path id="Path_1831" data-name="Path 1831" d="M73.457,15.316a3.591,3.591,0,0,1-.99,2.66,3.86,3.86,0,0,1-2.92,1.175,4.095,4.095,0,0,1-4.137-4.2,4.141,4.141,0,0,1,5.773-3.86,3.281,3.281,0,0,1,1.242.889l-.7.7A2.685,2.685,0,0,0,69.5,11.8a3.08,3.08,0,0,0-3.088,3.18,3.13,3.13,0,0,0,5.312,2.291,2.517,2.517,0,0,0,.663-1.611H69.5v-.94h3.86A3.355,3.355,0,0,1,73.457,15.316Zm6.075-3.323H75.907v2.517h3.264v.957H75.907v2.517h3.625v.982H74.883V11.012h4.649Zm4.313,6.982H82.822V11.993H80.6v-.982h5.446v.982h-2.2Zm6.176,0V11.012h1.057v7.955Zm5.555,0H94.553V11.993H92.337v-.982h5.454v.982H95.568Zm12.579-1.032a4.129,4.129,0,0,1-5.874,0,4.07,4.07,0,0,1-1.175-2.954,4.07,4.07,0,0,1,1.175-2.954,4.12,4.12,0,0,1,5.832,0,4.07,4.07,0,0,1,1.175,2.945,4.078,4.078,0,0,1-1.133,2.962Zm-5.077-.663a3.063,3.063,0,0,0,4.322,0A3.113,3.113,0,0,0,108.281,15a3.113,3.113,0,0,0-.881-2.282,3.063,3.063,0,0,0-4.322,0A3.122,3.122,0,0,0,102.2,15a3.122,3.122,0,0,0,.881,2.282Zm7.686,1.7V11.012h1.242l3.868,6.193h.042l-.042-1.536V11.012H116.9v7.955h-1.066l-4.045-6.495h-.042l.042,1.536v4.959Z" transform="translate(-10.522 -1.731)" fill="#fff"/>
  <path id="Path_1832" data-name="Path 1832" d="M100.832,33.183a5.639,5.639,0,1,0,5.664,5.639,5.563,5.563,0,0,0-5.664-5.639Zm0,9.063a3.424,3.424,0,1,1,3.18-3.415,3.264,3.264,0,0,1-3.18,3.415ZM88.5,33.183a5.639,5.639,0,1,0,5.664,5.639A5.563,5.563,0,0,0,88.5,33.183Zm0,9.063a3.424,3.424,0,1,1,3.18-3.415,3.264,3.264,0,0,1-3.18,3.415Zm-14.71-7.334v2.4H79.51a5.035,5.035,0,0,1-1.3,3.012,5.874,5.874,0,0,1-4.422,1.771,6.369,6.369,0,1,1,0-12.738A6.1,6.1,0,0,1,78.1,31.035l1.678-1.678A8.391,8.391,0,0,0,73.77,26.94a8.76,8.76,0,1,0,0,17.521A8.014,8.014,0,0,0,79.879,42a7.9,7.9,0,0,0,2.073-5.6,7.786,7.786,0,0,0-.126-1.494Zm60.1,1.863a5.245,5.245,0,0,0-4.833-3.591,5.362,5.362,0,0,0-5.312,5.639,5.521,5.521,0,0,0,5.6,5.639,5.614,5.614,0,0,0,4.7-2.517l-1.9-1.259a3.222,3.222,0,0,1-2.777,1.561,2.87,2.87,0,0,1-2.736-1.678l7.552-3.122Zm-7.695,1.88a3.1,3.1,0,0,1,2.945-3.273,2.182,2.182,0,0,1,2.1,1.2Zm-6.134,5.471h2.517V27.544h-2.517ZM116,34.442h-.084a3.91,3.91,0,0,0-2.971-1.259,5.647,5.647,0,0,0,0,11.286,3.843,3.843,0,0,0,2.971-1.284H116v.839c0,2.157-1.158,3.315-3.012,3.315a3.122,3.122,0,0,1-2.845-2.005l-2.157.9a5.379,5.379,0,0,0,5.035,3.356c2.9,0,5.362-1.678,5.362-5.874V33.527h-2.35Zm-2.845,7.8a3.432,3.432,0,0,1,0-6.839,3.184,3.184,0,0,1,3.012,3.44,3.155,3.155,0,0,1-3.012,3.407Zm32.34-14.7h-5.933V44.125h2.475V37.84h3.457a5.161,5.161,0,1,0,0-10.3Zm.067,7.988h-3.524V29.852h3.524a2.845,2.845,0,1,1,0,5.681Zm15.3-2.383a4.649,4.649,0,0,0-4.414,2.517l2.2.915a2.341,2.341,0,0,1,2.249-1.192,2.383,2.383,0,0,1,2.6,2.131v.168a5.471,5.471,0,0,0-2.576-.621c-2.366,0-4.775,1.3-4.775,3.734a3.834,3.834,0,0,0,4.12,3.65,3.491,3.491,0,0,0,3.155-1.62h.084v1.284h2.392V37.739c-.008-2.945-2.207-4.582-5.043-4.582Zm-.3,9.088c-.839,0-1.938-.4-1.938-1.41,0-1.284,1.41-1.771,2.626-1.771a4.405,4.405,0,0,1,2.257.554,3,3,0,0,1-2.945,2.635ZM174.592,33.5l-2.836,7.191h-.084L168.726,33.5h-2.668l4.414,10.069-2.517,5.589h2.585l6.805-15.633ZM152.271,44.125h2.517V27.544h-2.517Z" transform="translate(-10.458 -4.334)" fill="#fff"/>
  <path id="Path_1833" data-name="Path 1833" d="M16.372,11.9a2.66,2.66,0,0,0-.613,1.863V43.133A2.652,2.652,0,0,0,16.372,45l.1.092L32.9,28.624v-.386L16.472,11.8Z" transform="translate(-2.534 -1.898)" fill="url(#linear-gradient)"/>
  <path id="Path_1834" data-name="Path 1834" d="M41.669,36.2,36.19,30.725v-.386l5.479-5.479.126.067,6.486,3.684c1.854,1.057,1.854,2.777,0,3.826L41.8,36.121Z" transform="translate(-5.822 -3.999)" fill="url(#linear-gradient-2)"/>
  <path id="Path_1835" data-name="Path 1835" d="M38.626,37.215,33.021,31.61,16.49,48.141a2.153,2.153,0,0,0,2.752.084L38.626,37.215" transform="translate(-2.653 -5.085)" fill="url(#linear-gradient-3)"/>
  <path id="Path_1836" data-name="Path 1836" d="M38.628,22.744,19.252,11.735a2.151,2.151,0,0,0-2.752.084L33.031,28.349Z" transform="translate(-2.654 -1.816)" fill="url(#linear-gradient-4)"/>
  <path id="Path_1837" data-name="Path 1837" d="M38.5,38.14,19.251,49.049a2.189,2.189,0,0,1-2.66,0l-.1.1.1.092a2.239,2.239,0,0,0,2.66,0L38.626,38.266Z" transform="translate(-2.653 -6.136)" opacity="0.2" style="isolation: isolate"/>
  <path id="Path_1838" data-name="Path 1838" d="M16.372,47.949a2.66,2.66,0,0,1-.613-1.863v.193a2.66,2.66,0,0,0,.613,1.863l.1-.1ZM44.994,33.34,38.382,37.1l.126.126,6.486-3.692a2.324,2.324,0,0,0,1.393-1.913A2.467,2.467,0,0,1,44.994,33.34Z" transform="translate(-2.534 -5.087)" opacity="0.12" style="isolation: isolate"/>
  <path id="Path_1839" data-name="Path 1839" d="M19.136,11.885,45,26.62a2.467,2.467,0,0,1,1.393,1.72A2.324,2.324,0,0,0,45,26.427L19.136,11.734c-1.854-1.057-3.357-.176-3.357,1.947v.193c-.017-2.123,1.5-3,3.357-1.989Z" transform="translate(-2.539 -1.816)" fill="#fff" opacity="0.25" style="isolation: isolate"/>
</svg>
